<svg xmlns="http://www.w3.org/2000/svg" width="100" height="90" viewBox="0 0 100 90">
  <defs>
    <style>
      .cls-1 {
        fill: #9a9a9a;
        fill-rule: evenodd;
      }
    </style>
  </defs>
  <path class="cls-1" d="M50,0C63.486,0,74.419,9.419,74.419,21.039S63.486,42.078,50,42.078,25.581,32.658,25.581,21.039,36.514,0,50,0Z"/>
  <path id="Ellipse_1_copy" data-name="Ellipse 1 copy" class="cls-1" d="M50,43.871c27.614,0,50-15.473,50,6.444S77.614,90,50,90,0,72.233,0,50.316,22.386,43.871,50,43.871Z"/>
</svg>
