<svg xmlns="http://www.w3.org/2000/svg" width="329" height="31" viewBox="0 0 329 31">
  <g id="Group_3976" data-name="Group 3976" transform="translate(-952.5 -618)">
    <line id="Line_2" data-name="Line 2" x2="329" transform="translate(952.5 635.5)" fill="none" stroke="#e3e3e3" stroke-width="1"/>
    <ellipse id="Ellipse_1" data-name="Ellipse 1" cx="24" cy="15.5" rx="24" ry="15.5" transform="translate(1096 618)" fill="#f3f4f8"/>
    <text id="or" transform="translate(1117 640)" fill="#5e5e5e" font-size="18" font-family="Lato-Regular, Lato"><tspan x="-8.379" y="0">or</tspan></text>
  </g>
</svg>
